Servo Example
…
 While there is some variation by category of screw/motor and
level of pgain/vgain, we see all levels/categories have at least 20
observations. This is good for fitting individual predictor effects.
Next we count the number of observations across every possible
combination of the predictor variables. This gives us a sense of the
combinations of predictors present in the data for evaluating possible
interaction effects.

servo |> group_by(motor, screw, pgain, vgain) |> summarize(count=n())

## # A tibble: 167 x 5
## # Groups:   motor, screw, pgain [93]
##    motor screw pgain vgain count
##    <chr> <chr> <int> <int> <int>
##  1 A     A         3     1     1
##  2 A     A         3     2     1
##  3 A     A         4     1     1
##  4 A     A         4     2     1
##  5 A     A         4     3     1
##  6 A     A         5     3     1
##  7 A     A         5     4     1
##  8 A     A         6     5     1
##  9 A     B         3     1     1
## 10 A     B         3     2     1
## # ... with 157 more rows
…
